{
  "/backend": {
    "target": "http://localhost:8089/employees",
    "secure": false,
    "logLevel": "debug",
    "pathRewrite": {
      "^/backend": ""
    },
    "changeOrigin": true
  },
  "/auth": {
    "target": "http://authproxy.szut.dev/",
    "secure": false,
    "logLevel": "debug",
    "pathRewrite": {
      "^/auth": ""
    },
    "changeOrigin": true
  }
}

